^C:\USERS\SNORFLAKE\DOCUMENTS\VISUAL STUDIO 2013\PROJECTS\MEATBEATER\MEATBEATER\RELEASE\MAIN.OBJ
C:\WINDOWS\GLOBALIZATION\SORTING\SORTDEFAULT.NLS
C:\WINDOWS\SYSTEM32\TZRES.DLL
C:\USERS\SNORFLAKE\DOCUMENTS\VISUAL STUDIO 2013\PROJECTS\MEATBEATER\MEATBEATER\RELEASE\MAIN.OBJ
C:\PROGRA~2\INTEL\COMPOS~1\BIN\IA32\MCPCOM.EXE
C:\PROGRAM FILES (X86)\WINDOWS KITS\8.1\LIB\WINV6.3\UM\X86\KERNEL32.LIB
C:\PROGRAM FILES (X86)\WINDOWS KITS\8.1\LIB\WINV6.3\UM\X86\USER32.LIB
C:\PROGRAM FILES (X86)\WINDOWS KITS\8.1\LIB\WINV6.3\UM\X86\GDI32.LIB
C:\PROGRAM FILES (X86)\WINDOWS KITS\8.1\LIB\WINV6.3\UM\X86\WINSPOOL.LIB
C:\PROGRAM FILES (X86)\WINDOWS KITS\8.1\LIB\WINV6.3\UM\X86\COMDLG32.LIB
C:\PROGRAM FILES (X86)\WINDOWS KITS\8.1\LIB\WINV6.3\UM\X86\ADVAPI32.LIB
C:\PROGRAM FILES (X86)\WINDOWS KITS\8.1\LIB\WINV6.3\UM\X86\SHELL32.LIB
C:\PROGRAM FILES (X86)\WINDOWS KITS\8.1\LIB\WINV6.3\UM\X86\OLE32.LIB
C:\PROGRAM FILES (X86)\WINDOWS KITS\8.1\LIB\WINV6.3\UM\X86\OLEAUT32.LIB
C:\PROGRAM FILES (X86)\WINDOWS KITS\8.1\LIB\WINV6.3\UM\X86\UUID.LIB
C:\PROGRAM FILES (X86)\WINDOWS KITS\8.1\LIB\WINV6.3\UM\X86\ODBC32.LIB
C:\PROGRAM FILES (X86)\WINDOWS KITS\8.1\LIB\WINV6.3\UM\X86\ODBCCP32.LIB
C:\PROGRA~2\INTEL\COMPOS~1\BIN\INTEL64_MIC\IFORT.EXE
C:\PROGRAM FILES (X86)\MICROSOFT VISUAL STUDIO 12.0\VC\BIN\LINK.EXE
C:\PROGRAM FILES (X86)\MICROSOFT VISUAL STUDIO 12.0\VC\LIB\MSVCPRT.LIB
C:\HL2SDK-GMOD\LIB\PUBLIC\TIER0.LIB
C:\HL2SDK-GMOD\LIB\PUBLIC\TIER1.LIB
C:\HL2SDK-GMOD\LIB\PUBLIC\TIER2.LIB
C:\HL2SDK-GMOD\LIB\PUBLIC\TIER3.LIB
C:\HL2SDK-GMOD\LIB\PUBLIC\MATHLIB.LIB
C:\HL2SDK-GMOD\LIB\PUBLIC\VSTDLIB.LIB
C:\PROGRAM FILES (X86)\WINDOWS KITS\8.1\LIB\WINV6.3\UM\X86\WINMM.LIB
C:\PROGRAM FILES (X86)\INTEL\COMPOSER XE 2015\COMPILER\LIB\IA32\LIBMMD.LIB
C:\PROGRAM FILES (X86)\MICROSOFT VISUAL STUDIO 12.0\VC\LIB\MSVCRT.LIB
C:\PROGRAM FILES (X86)\INTEL\COMPOSER XE 2015\COMPILER\LIB\IA32\LIBIRC.LIB
C:\PROGRAM FILES (X86)\INTEL\COMPOSER XE 2015\COMPILER\LIB\IA32\SVML_DISPMD.LIB
C:\PROGRAM FILES (X86)\MICROSOFT VISUAL STUDIO 12.0\VC\LIB\OLDNAMES.LIB
C:\PROGRAM FILES (X86)\INTEL\COMPOSER XE 2015\COMPILER\LIB\IA32\LIBDECIMAL.LIB
C:\PROGRAM FILES (X86)\MICROSOFT VISUAL STUDIO 12.0\VC\BIN\MSPDBSRV.EXE
C:\PROGRAM FILES (X86)\MICROSOFT VISUAL STUDIO 12.0\VC\LIB\LIBCMT.LIB
C:\PROGRAM FILES (X86)\INTEL\COMPOSER XE 2015\BIN\IA32\ICL.EXE
C:\PROGRAM FILES (X86)\INTEL\COMPOSER XE 2015\DOCUMENTATION\CSUPPORT.TXT
